lab7-pipeline/dump.vcd
$date
	Wed Jun 13 23:15:45 2018
$end
$version
	Icarus Verilog
$end
$timescale
	1s
$end
$scope module cpu_tb $end
$var reg 1 ! clk $end
$var integer 32 " i [31:0] $end
$scope module mycpu $end
$var wire 1 ! clk $end
$var wire 1 # zero_s4 $end
$var wire 1 $ zero_s3 $end
$var wire 5 % wrreg_s5 [4:0] $end
$var wire 5 & wrreg_s4 [4:0] $end
$var wire 5 ' wrreg [4:0] $end
$var wire 32 ( wrdata_s5 [31:0] $end
$var wire 5 ) shamt [4:0] $end
$var wire 32 * seimm_sl2 [31:0] $end
$var wire 32 + seimm_s3 [31:0] $end
$var wire 32 , seimm [31:0] $end
$var wire 5 - rt_s3 [4:0] $end
$var wire 5 . rt [4:0] $end
$var wire 5 / rs_s3 [4:0] $end
$var wire 5 0 rs [4:0] $end
$var wire 1 1 regwrite_s5 $end
$var wire 1 2 regwrite_s4 $end
$var wire 1 3 regwrite_s3 $end
$var wire 1 4 regwrite $end
$var wire 1 5 regdst_s3 $end
$var wire 1 6 regdst $end
$var wire 32 7 rdata_s5 [31:0] $end
$var wire 32 8 rdata [31:0] $end
$var wire 5 9 rd_s3 [4:0] $end
$var wire 5 : rd [4:0] $end
$var wire 32 ; pc4_s3 [31:0] $end
$var wire 32 < pc4_s2 [31:0] $end
$var wire 32 = pc4 [31:0] $end
$var wire 6 > opcode [5:0] $end
$var wire 1 ? memwrite_s4 $end
$var wire 1 @ memwrite_s3 $end
$var wire 1 A memwrite $end
$var wire 1 B memtoreg_s5 $end
$var wire 1 C memtoreg_s4 $end
$var wire 1 D memtoreg_s3 $end
$var wire 1 E memtoreg $end
$var wire 1 F memread_s4 $end
$var wire 1 G memread_s3 $end
$var wire 1 H memread $end
$var wire 1 I jump_s4 $end
$var wire 1 J jump_s3 $end
$var wire 1 K jump_s2 $end
$var wire 32 L jaddr_s4 [31:0] $end
$var wire 32 M jaddr_s3 [31:0] $end
$var wire 32 N jaddr_s2 [31:0] $end
$var wire 32 O inst_s2 [31:0] $end
$var wire 32 P inst [31:0] $end
$var wire 16 Q imm [15:0] $end
$var wire 6 R funct [5:0] $end
$var wire 32 S data2_s4 [31:0] $end
$var wire 32 T data2_s3 [31:0] $end
$var wire 32 U data2 [31:0] $end
$var wire 32 V data1_s3 [31:0] $end
$var wire 32 W data1 [31:0] $end
$var wire 1 X branch_ne_s4 $end
$var wire 1 Y branch_ne_s3 $end
$var wire 1 Z branch_ne_s2 $end
$var wire 1 [ branch_eq_s4 $end
$var wire 1 \ branch_eq_s3 $end
$var wire 1 ] branch_eq_s2 $end
$var wire 32 ^ baddr_s4 [31:0] $end
$var wire 32 _ baddr_s3 [31:0] $end
$var wire 32 ` baddr_s2 [31:0] $end
$var wire 1 a alusrc_s3 $end
$var wire 32 b alusrc_data2 [31:0] $end
$var wire 1 c alusrc $end
$var wire 32 d alurslt_s5 [31:0] $end
$var wire 32 e alurslt_s4 [31:0] $end
$var wire 32 f alurslt [31:0] $end
$var wire 2 g aluop_s3 [1:0] $end
$var wire 2 h aluop [1:0] $end
$var wire 4 i aluctl [3:0] $end
$var reg 1 j flush_s1 $end
$var reg 1 k flush_s2 $end
$var reg 1 l flush_s3 $end
$var reg 2 m forward_a [1:0] $end
$var reg 2 n forward_b [1:0] $end
$var reg 32 o fw_data1_s3 [31:0] $end
$var reg 32 p fw_data2_s3 [31:0] $end
$var reg 32 q pc [31:0] $end
$var reg 1 r pcsrc $end
$var reg 1 s stall_s1_s2 $end
$scope module DataMemory $end
$var wire 7 t addr [6:0] $end
$var wire 1 ! clk $end
$var wire 1 F rd $end
$var wire 1 ? wr $end
$var wire 32 u wdata [31:0] $end
$var wire 32 v rdata [31:0] $end
$upscope $end
$scope module InstructionMemory $end
$var wire 32 w addr [31:0] $end
$var wire 1 ! clk $end
$var wire 32 x data [31:0] $end
$upscope $end
$scope module alu1 $end
$var wire 32 y a [31:0] $end
$var wire 32 z b [31:0] $end
$var wire 1 $ zero $end
$var wire 32 { sub_ab [31:0] $end
$var wire 1 | slt $end
$var wire 1 } oflow_sub $end
$var wire 1 ~ oflow_add $end
$var wire 1 !" oflow $end
$var wire 4 "" ctl [3:0] $end
$var wire 32 #" add_ab [31:0] $end
$var reg 32 $" out [31:0] $end
$upscope $end
$scope module alu_ctl1 $end
$var wire 2 %" aluop [1:0] $end
$var wire 6 &" funct [5:0] $end
$var reg 4 '" _funct [3:0] $end
$var reg 4 (" aluctl [3:0] $end
$upscope $end
$scope module baddr_s2_s3 $end
$var wire 1 k clear $end
$var wire 1 ! clk $end
$var wire 1 )" hold $end
$var wire 32 *" in [31:0] $end
$var reg 32 +" out [31:0] $end
$upscope $end
$scope module baddr_s3_s4 $end
$var wire 1 l clear $end
$var wire 1 ! clk $end
$var wire 1 ," hold $end
$var wire 32 -" in [31:0] $end
$var reg 32 ." out [31:0] $end
$upscope $end
$scope module branch_s2_s3 $end
$var wire 1 k clear $end
$var wire 1 ! clk $end
$var wire 1 /" hold $end
$var wire 2 0" in [1:0] $end
$var reg 2 1" out [1:0] $end
$upscope $end
$scope module branch_s3_s4 $end
$var wire 1 l clear $end
$var wire 1 ! clk $end
$var wire 1 2" hold $end
$var wire 2 3" in [1:0] $end
$var reg 2 4" out [1:0] $end
$upscope $end
$scope module ctl1 $end
$var wire 6 5" opcode [5:0] $end
$var reg 2 6" aluop [1:0] $end
$var reg 1 c alusrc $end
$var reg 1 ] branch_eq $end
$var reg 1 Z branch_ne $end
$var reg 1 K jump $end
$var reg 1 H memread $end
$var reg 1 E memtoreg $end
$var reg 1 A memwrite $end
$var reg 1 6 regdst $end
$var reg 1 4 regwrite $end
$upscope $end
$scope module reg_alurslt $end
$var wire 1 l clear $end
$var wire 1 ! clk $end
$var wire 1 7" hold $end
$var wire 32 8" in [31:0] $end
$var reg 32 9" out [31:0] $end
$upscope $end
$scope module reg_alurslt_s4 $end
$var wire 1 :" clear $end
$var wire 1 ! clk $end
$var wire 1 ;" hold $end
$var wire 32 <" in [31:0] $end
$var reg 32 =" out [31:0] $end
$upscope $end
$scope module reg_data2_s3 $end
$var wire 1 l clear $end
$var wire 1 ! clk $end
$var wire 1 >" hold $end
$var wire 32 ?" in [31:0] $end
$var reg 32 @" out [31:0] $end
$upscope $end
$scope module reg_jaddr_s3 $end
$var wire 1 k clear $end
$var wire 1 ! clk $end
$var wire 1 A" hold $end
$var wire 32 B" in [31:0] $end
$var reg 32 C" out [31:0] $end
$upscope $end
$scope module reg_jaddr_s4 $end
$var wire 1 l clear $end
$var wire 1 ! clk $end
$var wire 1 D" hold $end
$var wire 32 E" in [31:0] $end
$var reg 32 F" out [31:0] $end
$upscope $end
$scope module reg_jump_s3 $end
$var wire 1 k clear $end
$var wire 1 ! clk $end
$var wire 1 G" hold $end
$var wire 1 K in $end
$var reg 1 J out $end
$upscope $end
$scope module reg_jump_s4 $end
$var wire 1 l clear $end
$var wire 1 ! clk $end
$var wire 1 H" hold $end
$var wire 1 J in $end
$var reg 1 I out $end
$upscope $end
$scope module reg_pc4_s2 $end
$var wire 1 I" clear $end
$var wire 1 ! clk $end
$var wire 1 s hold $end
$var wire 32 J" in [31:0] $end
$var reg 32 K" out [31:0] $end
$upscope $end
$scope module reg_rdata_s4 $end
$var wire 1 L" clear $end
$var wire 1 ! clk $end
$var wire 1 M" hold $end
$var wire 32 N" in [31:0] $end
$var reg 32 O" out [31:0] $end
$upscope $end
$scope module reg_regwrite_s4 $end
$var wire 1 P" clear $end
$var wire 1 ! clk $end
$var wire 1 Q" hold $end
$var wire 2 R" in [1:0] $end
$var reg 2 S" out [1:0] $end
$upscope $end
$scope module reg_s2_control $end
$var wire 1 s clear $end
$var wire 1 ! clk $end
$var wire 1 T" hold $end
$var wire 8 U" in [7:0] $end
$var reg 8 V" out [7:0] $end
$upscope $end
$scope module reg_s2_mem $end
$var wire 1 k clear $end
$var wire 1 ! clk $end
$var wire 1 s hold $end
$var wire 64 W" in [63:0] $end
$var reg 64 X" out [63:0] $end
$upscope $end
$scope module reg_s2_rt_rd $end
$var wire 1 k clear $end
$var wire 1 ! clk $end
$var wire 1 s hold $end
$var wire 10 Y" in [9:0] $end
$var reg 10 Z" out [9:0] $end
$upscope $end
$scope module reg_s2_seimm $end
$var wire 1 k clear $end
$var wire 1 ! clk $end
$var wire 1 s hold $end
$var wire 32 [" in [31:0] $end
$var reg 32 \" out [31:0] $end
$upscope $end
$scope module reg_s3 $end
$var wire 1 k clear $end
$var wire 1 ! clk $end
$var wire 1 ]" hold $end
$var wire 4 ^" in [3:0] $end
$var reg 4 _" out [3:0] $end
$upscope $end
$scope module reg_wrreg $end
$var wire 1 l clear $end
$var wire 1 ! clk $end
$var wire 1 `" hold $end
$var wire 5 a" in [4:0] $end
$var reg 5 b" out [4:0] $end
$upscope $end
$scope module reg_wrreg_s4 $end
$var wire 1 c" clear $end
$var wire 1 ! clk $end
$var wire 1 d" hold $end
$var wire 5 e" in [4:0] $end
$var reg 5 f" out [4:0] $end
$upscope $end
$scope module reg_zero_s3_s4 $end
$var wire 1 g" clear $end
$var wire 1 ! clk $end
$var wire 1 h" hold $end
$var wire 1 $ in $end
$var reg 1 # out $end
$upscope $end
$scope module regm1 $end
$var wire 1 ! clk $end
$var wire 32 i" data1 [31:0] $end
$var wire 32 j" data2 [31:0] $end
$var wire 5 k" read1 [4:0] $end
$var wire 5 l" read2 [4:0] $end
$var wire 1 1 regwrite $end
$var wire 32 m" wrdata [31:0] $end
$var wire 5 n" wrreg [4:0] $end
$var reg 32 o" _data1 [31:0] $end
$var reg 32 p" _data2 [31:0] $end
$upscope $end
$scope module regr_im_s2 $end
$var wire 1 j clear $end
$var wire 1 ! clk $end
$var wire 1 s hold $end
$var wire 32 q" in [31:0] $end
$var reg 32 r" out [31:0] $end
$upscope $end
$scope module regr_pc4_s2 $end
$var wire 1 j clear $end
$var wire 1 ! clk $end
$var wire 1 s hold $end
$var wire 32 s" in [31:0] $end
$var reg 32 t" out [31:0] $end
$upscope $end
$scope module regr_s2_rs $end
$var wire 1 u" clear $end
$var wire 1 ! clk $end
$var wire 1 s hold $end
$var wire 5 v" in [4:0] $end
$var reg 5 w" out [4:0] $end
$upscope $end
$upscope $end
$upscope $end
$scope module cpu_tb $end
$scope module mycpu $end
$scope module DataMemory $end
$upscope $end
$scope module InstructionMemory $end
$upscope $end
$scope module alu1 $end
$upscope $end
$scope module alu_ctl1 $end
$upscope $end
$scope module baddr_s2_s3 $end
$upscope $end
$scope module baddr_s3_s4 $end
$upscope $end
$scope module branch_s2_s3 $end
$upscope $end
$scope module branch_s3_s4 $end
$upscope $end
$scope module ctl1 $end
$upscope $end
$scope module reg_alurslt $end
$upscope $end
$scope module reg_alurslt_s4 $end
$upscope $end
$scope module reg_data2_s3 $end
$upscope $end
$scope module reg_jaddr_s3 $end
$upscope $end
$scope module reg_jaddr_s4 $end
$upscope $end
$scope module reg_jump_s3 $end
$upscope $end
$scope module reg_jump_s4 $end
$upscope $end
$scope module reg_pc4_s2 $end
$upscope $end
$scope module reg_rdata_s4 $end
$upscope $end
$scope module reg_regwrite_s4 $end
$upscope $end
$scope module reg_s2_control $end
$upscope $end
$scope module reg_s2_mem $end
$upscope $end
$scope module reg_s2_rt_rd $end
$upscope $end
$scope module reg_s2_seimm $end
$upscope $end
$scope module reg_s3 $end
$upscope $end
$scope module reg_wrreg $end
$upscope $end
$scope module reg_wrreg_s4 $end
$upscope $end
$scope module reg_zero_s3_s4 $end
$upscope $end
$scope module regm1 $end
$upscope $end
$scope module regr_im_s2 $end
$upscope $end
$scope module regr_pc4_s2 $end
$upscope $end
$scope module regr_s2_rs $end
$upscope $end
$upscope $end
$upscope $end
$enddefinitions $end
#0
$dumpvars
bx w"
bx v"
0u"
bx t"
b100 s"
bx r"
b100000000010000010000000000000 q"
bx p"
bx o"
bx n"
bx m"
bx l"
bx k"
bx j"
bx i"
0h"
0g"
bx f"
bx e"
0d"
0c"
bx b"
bx a"
0`"
bx _"
bx ^"
0]"
bx \"
bx ["
bx Z"
bx Y"
bx X"
bx W"
bx V"
bx U"
0T"
bx S"
bx R"
0Q"
0P"
bx O"
bx N"
0M"
0L"
bx K"
bx J"
0I"
0H"
0G"
bx F"
bx E"
0D"
bx C"
b0xxxxxxxxxxxxxxxxxxxxxxxxxx00 B"
0A"
bx @"
bx ?"
0>"
bx ="
bx <"
0;"
0:"
bx 9"
bx 8"
07"
bx 6"
bx 5"
bx 4"
bx 3"
02"
bx 1"
bx 0"
0/"
bx ."
bx -"
0,"
bx +"
bx *"
0)"
bx ("
bx '"
bx &"
bx %"
bx $"
bx #"
bx ""
x!"
x~
x}
x|
bx {
bx z
bx y
b100000000010000010000000000000 x
b0 w
bx v
bx u
bx t
xs
xr
b0 q
bx p
bx o
bx n
bx m
xl
xk
xj
bx i
bx h
bx g
bx f
bx e
bx d
xc
bx b
xa
bx `
bx _
bx ^
x]
x\
x[
xZ
xY
xX
bx W
bx V
bx U
bx T
bx S
bx R
bx Q
b100000000010000010000000000000 P
bx O
b0xxxxxxxxxxxxxxxxxxxxxxxxxx00 N
bx M
bx L
xK
xJ
xI
xH
xG
xF
xE
xD
xC
xB
xA
x@
x?
bx >
b100 =
bx <
bx ;
bx :
bx 9
bx 8
bx 7
x6
x5
x4
x3
x2
x1
bx 0
bx /
bx .
bx -
bx ,
bx +
bx00 *
bx )
bx (
bx '
bx &
bx %
x$
x#
b0 "
0!
$end
#5
0s
0K
14
06
0A
0E
0H
0Z
b0 0"
0]
1c
b11 U"
b0 h
b0 6"
b1000000000000100 `
b1000000000000100 *"
b1000000000000000 *
b0xxxxxxxxxxxxxxxxxxxxxxxxxxxxxxxx W"
b0 W
b0 i"
b0 o"
b10000000000000 ,
b10000000000000 ["
b1000001000000000000000 N
b1000001000000000000000 B"
b0 )
b10000000000000 Q
b100 :
b100000100 Y"
b1000 .
b1000 l"
b0 0
b0 k"
b0 v"
b1000 >
b1000 5"
b1001010010100100000100110 P
b1001010010100100000100110 x
b1001010010100100000100110 q"
b100 <
b100 J"
b100 t"
b100000000010000010000000000000 O
b100000000010000010000000000000 r"
b0xxxxxxxxxxxxxxxxxxxxxxxxxx00 M
b0xxxxxxxxxxxxxxxxxxxxxxxxxx00 C"
b0xxxxxxxxxxxxxxxxxxxxxxxxxx00 E"
b1000 =
b1000 s"
b100 q
b100 w
b1 "
1!
#10
0!
#15
0$
b10000000000000 8"
b10000000000000 f
b10000000000000 $"
16
0c
b10001010 U"
b10 h
b10 6"
b0 n
b0 m
0!"
1|
0~
1}
b11111111111111111110000000000000 {
b10000000000000 #"
b10000000000000 b
b10000000000000 z
b10 i
b10 ""
b10 ("
b1000 '
b1000 a"
b10 '"
b0 o
b0 y
b10010000010011000 *
bx W"
bx W
bx i"
bx o"
b1010010100101000000100110 P
b1010010100101000000100110 x
b1010010100101000000100110 q"
0Y
b0 3"
0\
1a
13
b0 g
b0 %"
0D
0@
b1000 ^"
0G
05
b100 9
b1000 -
b0 R
b0 &"
b0 V
b100100000100110 ,
b100100000100110 ["
b100101001010010000010011000 N
b100101001010010000010011000 B"
b100100000100110 Q
b1001 :
b100101001 Y"
b1001 .
b1001 l"
b1001 0
b1001 k"
b1001 v"
b0 >
b0 5"
b1100 =
b1100 s"
b1000 q
b1000 w
b0xxxxxxxxxxxxxxxxxxxxxxxxxx00 L
b0xxxxxxxxxxxxxxxxxxxxxxxxxx00 F"
b1000001000000000000000 M
b1000001000000000000000 C"
b1000001000000000000000 E"
0J
b1000000000000100 _
b1000000000000100 +"
b1000000000000100 -"
b0 1"
b11 V"
b100 ;
b100 K"
b100000100 Z"
b10000000000000 +
b10000000000000 \"
b0xxxxxxxxxxxxxxxxxxxxxxxxxxxxxxxx X"
b0 /
b0 w"
b1001010010100100000100110 O
b1001010010100100000100110 r"
b10010000010100000 `
b10010000010100000 *"
b1000 <
b1000 J"
b1000 t"
b10 "
1!
#20
0!
#25
x$
bx 8"
bx f
bx $"
0r
0l
0k
0j
x~
x}
x|
x!"
b1101 i
b1101 ""
b1101 ("
b10100000010011000 *
b1101 '"
b1001 '
b1001 a"
b0 8
b0 v
b0 N"
b0 t
bx o
bx y
b101000000100110 ,
b101000000100110 ["
b101001010010100000010011000 N
b101001010010100000010011000 B"
b101000000100110 Q
b1010 :
b101001010 Y"
b1010 .
b1010 l"
b1010 0
b1010 k"
b1010 v"
bx V
b100110 R
b100110 &"
bx {
bx #"
bx b
bx z
b1001 9
b1001 -
0a
b10 g
b10 %"
15
0?
0F
0C
b10 R"
12
b10000000000000 e
b10000000000000 <"
0X
0[
b1011010110101100000100110 P
b1011010110101100000100110 x
b1011010110101100000100110 q"
b10100000010100100 `
b10100000010100100 *"
b1100 <
b1100 J"
b1100 t"
b1010010100101000000100110 O
b1010010100101000000100110 r"
b1001 /
b1001 w"
bx X"
b100100000100110 +
b100100000100110 \"
b100101001 Z"
b1000 ;
b1000 K"
b10001010 V"
b10010000010100000 _
b10010000010100000 +"
b10010000010100000 -"
b100101001010010000010011000 M
b100101001010010000010011000 C"
b100101001010010000010011000 E"
b1000 _"
0#
b10000000000000 9"
b1000 &
b1000 b"
b1000 e"
b0 4"
b1000000000000100 ^
b1000000000000100 ."
0I
b1000001000000000000000 L
b1000001000000000000000 F"
b10000 =
b10000 s"
b1100 q
b1100 w
b11 "
1!
#30
0!
#35
b0 n
bx 8
bx v
bx N"
bx t
b1010 '
b1010 a"
b10110000010011000 *
b1100011000110000000100110 P
b1100011000110000000100110 x
b1100011000110000000100110 q"
b10000000000000 (
b10000000000000 m"
0B
11
bx e
bx <"
b1010 9
b1010 -
b101100000100110 ,
b101100000100110 ["
b101101011010110000010011000 N
b101101011010110000010011000 B"
b101100000100110 Q
b1011 :
b101101011 Y"
b1011 .
b1011 l"
b1011 0
b1011 k"
b1011 v"
b10100 =
b10100 s"
b10000 q
b10000 w
b1000 %
b1000 f"
b1000 n"
b10000000000000 d
b10000000000000 ="
b0 7
b0 O"
b10 S"
b100101001010010000010011000 L
b100101001010010000010011000 F"
b10010000010100000 ^
b10010000010100000 ."
b1001 &
b1001 b"
b1001 e"
bx 9"
x#
b101001010010100000010011000 M
b101001010010100000010011000 C"
b101001010010100000010011000 E"
b10100000010100100 _
b10100000010100100 +"
b10100000010100100 -"
b1100 ;
b1100 K"
b101001010 Z"
b101000000100110 +
b101000000100110 \"
b1010 /
b1010 w"
b1011010110101100000100110 O
b1011010110101100000100110 r"
b10110000010101000 `
b10110000010101000 *"
b10000 <
b10000 J"
b10000 t"
b100 "
1!
#40
0!
#45
b0 n
b11000000010011000 *
b1011 '
b1011 a"
b110000000100110 ,
b110000000100110 ["
b110001100011000000010011000 N
b110001100011000000010011000 B"
b110000000100110 Q
b1100 :
b110001100 Y"
b1100 .
b1100 l"
b1100 0
b1100 k"
b1100 v"
b1011 9
b1011 -
bx (
bx m"
b100001001010010000000000000001 P
b100001001010010000000000000001 x
b100001001010010000000000000001 q"
b11000000010101100 `
b11000000010101100 *"
b10100 <
b10100 J"
b10100 t"
b1100011000110000000100110 O
b1100011000110000000100110 r"
b1011 /
b1011 w"
b101100000100110 +
b101100000100110 \"
b101101011 Z"
b10000 ;
b10000 K"
b10110000010101000 _
b10110000010101000 +"
b10110000010101000 -"
b101101011010110000010011000 M
b101101011010110000010011000 C"
b101101011010110000010011000 E"
b1010 &
b1010 b"
b1010 e"
b10100000010100100 ^
b10100000010100100 ."
b101001010010100000010011000 L
b101001010010100000010011000 F"
bx 7
bx O"
bx d
bx ="
b1001 %
b1001 f"
b1001 n"
b11000 =
b11000 s"
b10100 q
b10100 w
b101 "
1!
#50
0!
#55
1c
b0 h
b0 6"
b11 U"
06
b0 n
b1100 '
b1100 a"
b100 *
b100001010010100000000000000010 P
b100001010010100000000000000010 x
b100001010010100000000000000010 q"
b1100 9
b1100 -
b1 ,
b1 ["
b100101001000000000000000100 N
b100101001000000000000000100 B"
b1 Q
b0 :
b100100000 Y"
b1001 .
b1001 l"
b1001 0
b1001 k"
b1001 v"
b1000 >
b1000 5"
b11100 =
b11100 s"
b11000 q
b11000 w
b1010 %
b1010 f"
b1010 n"
b101101011010110000010011000 L
b101101011010110000010011000 F"
b10110000010101000 ^
b10110000010101000 ."
b1011 &
b1011 b"
b1011 e"
b110001100011000000010011000 M
b110001100011000000010011000 C"
b110001100011000000010011000 E"
b11000000010101100 _
b11000000010101100 +"
b11000000010101100 -"
b10100 ;
b10100 K"
b110001100 Z"
b110000000100110 +
b110000000100110 \"
b1100 /
b1100 w"
b100001001010010000000000000001 O
b100001001010010000000000000001 r"
b11100 `
b11100 *"
b11000 <
b11000 J"
b11000 t"
b110 "
1!
#60
0!
#65
b0 n
b1000 *
b0 '"
b1 b
b1 z
b10 i
b10 ""
b10 ("
b1001 '
b1001 a"
b10 ,
b10 ["
b101001010000000000000001000 N
b101001010000000000000001000 B"
b10 Q
b101000000 Y"
b1010 .
b1010 l"
b1010 0
b1010 k"
b1010 v"
b1 R
b1 &"
b0 9
b1001 -
1a
b0 g
b0 %"
05
b100001011010111111111111111111 P
b100001011010111111111111111111 x
b100001011010111111111111111111 q"
b100100 `
b100100 *"
b11100 <
b11100 J"
b11100 t"
b100001010010100000000000000010 O
b100001010010100000000000000010 r"
b1001 /
b1001 w"
b1 +
b1 \"
b100100000 Z"
b11000 ;
b11000 K"
b11 V"
b11100 _
b11100 +"
b11100 -"
b100101001000000000000000100 M
b100101001000000000000000100 C"
b100101001000000000000000100 E"
b1100 &
b1100 b"
b1100 e"
b11000000010101100 ^
b11000000010101100 ."
b110001100011000000010011000 L
b110001100011000000010011000 F"
b1011 %
b1011 f"
b1011 n"
b100000 =
b100000 s"
b11100 q
b11100 w
b111 "
1!
#70
0!
#75
b0 n
b1010 '
b1010 a"
b110 '"
b11111111111111111111111111111100 *
b10001101000011000000000000000000 P
b10001101000011000000000000000000 x
b10001101000011000000000000000000 q"
b1010 -
b10 R
b10 &"
b10 b
b10 z
b11111111111111111111111111111111 ,
b11111111111111111111111111111111 ["
b101101011111111111111111100 N
b101101011111111111111111100 B"
b11111 )
b1111111111111111 Q
b11111 :
b101111111 Y"
b1011 .
b1011 l"
b1011 0
b1011 k"
b1011 v"
b100100 =
b100100 s"
b100000 q
b100000 w
b1100 %
b1100 f"
b1100 n"
b100101001000000000000000100 L
b100101001000000000000000100 F"
b11100 ^
b11100 ."
b1001 &
b1001 b"
b1001 e"
b101001010000000000000001000 M
b101001010000000000000001000 C"
b101001010000000000000001000 E"
b100100 _
b100100 +"
b100100 -"
b11100 ;
b11100 K"
b101000000 Z"
b10 +
b10 \"
b1010 /
b1010 w"
b100001011010111111111111111111 O
b100001011010111111111111111111 r"
b11100 `
b11100 *"
b100000 <
b100000 J"
b100000 t"
b1000 "
1!
#80
0!
#85
1E
1H
06
1c
b1010011 U"
b0 h
b0 6"
b0 n
b0 *
b10000000000000xxxxxxxxxxxxxxxxxxxxxxxxxxxxxxxx W"
b10000000000000 W
b10000000000000 i"
b10000000000000 o"
b0 '"
b1011 '
b1011 a"
b0 ,
b0 ["
b100001100000000000000000000 N
b100001100000000000000000000 B"
b0 )
b0 Q
b0 :
b110000000 Y"
b1100 .
b1100 l"
b1000 0
b1000 k"
b1000 v"
b100011 >
b100011 5"
b111111 R
b111111 &"
b11111111111111111111111111111111 b
b11111111111111111111111111111111 z
b11111 9
b1011 -
b100001000010000000000000000100 P
b100001000010000000000000000100 x
b100001000010000000000000000100 q"
b100100 `
b100100 *"
b100100 <
b100100 J"
b100100 t"
b10001101000011000000000000000000 O
b10001101000011000000000000000000 r"
b1011 /
b1011 w"
b11111111111111111111111111111111 +
b11111111111111111111111111111111 \"
b101111111 Z"
b100000 ;
b100000 K"
b11100 _
b11100 +"
b11100 -"
b101101011111111111111111100 M
b101101011111111111111111100 C"
b101101011111111111111111100 E"
b1010 &
b1010 b"
b1010 e"
b100100 ^
b100100 ."
b101001010000000000000001000 L
b101001010000000000000001000 F"
b1001 %
b1001 f"
b1001 n"
b101000 =
b101000 s"
b100100 q
b100100 w
b1001 "
1!
#90
0!
#95
0$
b10000000000000 8"
b10000000000000 f
b10000000000000 $"
06
0E
0H
1c
b11 U"
b0 h
b0 6"
b0 n
0!"
0|
0~
0}
b1100 '
b1100 a"
b10 '"
b10000000000000 {
b10000000000000 #"
b10000000000000 o
b10000000000000 y
b10000 *
b1001010110110100000100000 P
b1001010110110100000100000 x
b1001010110110100000100000 q"
b1000000000000000000000000000000010000000000000 W"
b10000000000000 U
b10000000000000 j"
b10000000000000 p"
1D
b1110 ^"
1G
b0 9
b1100 -
b0 R
b0 &"
b0 b
b0 z
b10000000000000 V
b100 ,
b100 ["
b100001000000000000000010000 N
b100001000000000000000010000 B"
b100 Q
b100000000 Y"
b1000 .
b1000 l"
b1000 >
b1000 5"
b101100 =
b101100 s"
b101000 q
b101000 w
b1010 %
b1010 f"
b1010 n"
b101101011111111111111111100 L
b101101011111111111111111100 F"
b11100 ^
b11100 ."
b1011 &
b1011 b"
b1011 e"
b100001100000000000000000000 M
b100001100000000000000000000 C"
b100001100000000000000000000 E"
b100100 _
b100100 +"
b100100 -"
b1010011 V"
b100100 ;
b100100 K"
b110000000 Z"
b0 +
b0 \"
b10000000000000xxxxxxxxxxxxxxxxxxxxxxxxxxxxxxxx X"
b1000 /
b1000 w"
b100001000010000000000000000100 O
b100001000010000000000000000100 r"
b111000 `
b111000 *"
b101000 <
b101000 J"
b101000 t"
b1010 "
1!
#100
0!
#105
16
0c
b10001010 U"
b10 h
b10 6"
b10000000000100 8"
b10000000000100 f
b10000000000100 $"
b0 n
b0 8
b0 v
b0 N"
b11010000010000000 *
bx U
bx j"
bx p"
bx W"
bx W
bx i"
bx o"
b0 '"
b1000 '
b1000 a"
b0 t
b10000000000000 p
b10000000000000 ?"
b110100000100000 ,
b110100000100000 ["
b100101011011010000010000000 N
b100101011011010000010000000 B"
b110100000100000 Q
b1101 :
b101101101 Y"
b1011 .
b1011 l"
b1001 0
b1001 k"
b1001 v"
b0 >
b0 5"
b10000000000000 T
b100 R
b100 &"
b1111111111100 {
b10000000000100 #"
b100 b
b100 z
b1000 -
0D
b1000 ^"
0G
1F
b11 R"
1C
b10000000000000 e
b10000000000000 <"
b10101101000011010000000000000000 P
b10101101000011010000000000000000 x
b10101101000011010000000000000000 q"
b11010000010101100 `
b11010000010101100 *"
b101100 <
b101100 J"
b101100 t"
b1001010110110100000100000 O
b1001010110110100000100000 r"
b1000000000000000000000000000000010000000000000 X"
b100 +
b100 \"
b100000000 Z"
b101000 ;
b101000 K"
b11 V"
b111000 _
b111000 +"
b111000 -"
b100001000000000000000010000 M
b100001000000000000000010000 C"
b100001000000000000000010000 E"
b1110 _"
0#
b10000000000000 9"
b1100 &
b1100 b"
b1100 e"
b100100 ^
b100100 ."
b100001100000000000000000000 L
b100001100000000000000000000 F"
b1011 %
b1011 f"
b1011 n"
b110000 =
b110000 s"
b101100 q
b101100 w
b1011 "
1!
#110
0!
#115
x$
bx 8"
bx f
bx $"
04
1c
b0 h
b0 6"
b10100001 U"
1A
b0 n
x!"
x~
x}
x|
bx 8
bx v
bx N"
b1 t
b1101 '
b1101 a"
b10 '"
bx p
bx ?"
bx o
bx y
b0 *
b100001000010000000000000000100 P
b100001000010000000000000000100 x
b100001000010000000000000000100 q"
b10000000000000xxxxxxxxxxxxxxxxxxxxxxxxxxxxxxxx W"
b10000000000000 W
b10000000000000 i"
b10000000000000 o"
b0 (
b0 m"
1B
b10000000000100 e
b10000000000100 <"
0F
b10 R"
0C
0a
b10 g
b10 %"
15
b1101 9
b1011 -
b100000 R
b100000 &"
bx {
bx #"
bx b
bx z
bx T
bx V
b0 ,
b0 ["
b100001101000000000000000000 N
b100001101000000000000000000 B"
b0 Q
b0 :
b110100000 Y"
b1101 .
b1101 l"
b1000 0
b1000 k"
b1000 v"
b101011 >
b101011 5"
b110100 =
b110100 s"
b110000 q
b110000 w
b1100 %
b1100 f"
b1100 n"
b10000000000000 d
b10000000000000 ="
b0 7
b0 O"
b11 S"
b100001000000000000000010000 L
b100001000000000000000010000 F"
b111000 ^
b111000 ."
b1000 &
b1000 b"
b1000 e"
b10000000000000 S
b10000000000000 u
b10000000000000 @"
b10000000000100 9"
b1000 _"
b100101011011010000010000000 M
b100101011011010000010000000 C"
b100101011011010000010000000 E"
b11010000010101100 _
b11010000010101100 +"
b11010000010101100 -"
b10001010 V"
b101100 ;
b101100 K"
b101101101 Z"
b110100000100000 +
b110100000100000 \"
bx X"
b1001 /
b1001 w"
b10101101000011010000000000000000 O
b10101101000011010000000000000000 r"
b110000 `
b110000 *"
b110000 <
b110000 J"
b110000 t"
b1100 "
1!
#120
0!
